Assignment 3 in msb105
…
Kode

print(pend_02_24_boBF, n = 5)

# A tibble: 529,713 × 6
  aar   akom  akom_navn bkom  bkom_navn       pendlere
  <chr> <chr> <chr>     <chr> <chr>              <int>
1 2002  k3101 Halden    k1102 Sandnes (-2019)        0
2 2003  k3101 Halden    k1102 Sandnes (-2019)        0
3 2004  k3101 Halden    k1102 Sandnes (-2019)        0
4 2005  k3101 Halden    k1102 Sandnes (-2019)        0
5 2006  k3101 Halden    k1102 Sandnes (-2019)        0
# ℹ 529,708 more rows
…
Kode

print(pend_02_24_arbBF, n = 5)

# A tibble: 529,713 × 6
  aar   akom  akom_navn       bkom  bkom_navn pendlere
  <chr> <chr> <chr>           <chr> <chr>        <int>
1 2002  k1102 Sandnes (-2019) k3101 Halden           0
2 2003  k1102 Sandnes (-2019) k3101 Halden           0
3 2004  k1102 Sandnes (-2019) k3101 Halden           0
4 2005  k1102 Sandnes (-2019) k3101 Halden           0
5 2006  k1102 Sandnes (-2019) k3101 Halden           0
# ℹ 529,708 more rows
…
Kode

pend_02_24_boBF_agg <- pend_02_24_boBF %>% 
  group_by(aar, nye_akom, nye_akom_navn, nye_bkom, nye_bkom_navn) %>% 
  summarise(pendlere = sum(pendlere), .groups = "drop")

Kode

print(pend_02_24_boBF_agg, n = 5)

# A tibble: 9,660 × 6
  aar   nye_akom nye_akom_navn nye_bkom nye_bkom_navn pendlere
  <chr> <chr>    <chr>         <chr>    <chr>            <int>
1 2002  k1103    Stavanger     k1103    Stavanger        43142
2 2002  k1103    Stavanger     k1106    Haugesund          347
3 2002  k1103    Stavanger     k1108    Sandnes           8826
4 2002  k1103    Stavanger     k1119    Hå                 637
5 2002  k1103    Stavanger     k1120    Klepp             1187
# ℹ 9,655 more rows

Kode

dim(pend_02_24_boBF_agg)

[1] 9660    6

Kode

pend_02_24_boBF_agg %>% 
  filter(nye_akom_navn == "Stavanger") %>%   
  arrange(aar, nye_bkom_navn) %>%            
  print(n = 22)

# A tibble: 460 × 6
   aar   nye_akom nye_akom_navn nye_bkom nye_bkom_navn pendlere
   <chr> <chr>    <chr>         <chr>    <chr>            <int>
 1 2002  k1103    Stavanger     k1145    Bokn                16
 2 2002  k1103    Stavanger     k4611    Etne                39
 3 2002  k1103    Stavanger     k1122    Gjesdal            908
 4 2002  k1103    Stavanger     k1106    Haugesund          347
 5 2002  k1103    Stavanger     k1133    Hjelmeland         102
 6 2002  k1103    Stavanger     k1119    Hå                 637
 7 2002  k1103    Stavanger     k1149    Karmøy             416
 8 2002  k1103    Stavanger     k1120    Klepp             1187
 9 2002  k1103    Stavanger     k1144    Kvitsøy             63
10 2002  k1103    Stavanger     k1127    Randaberg         2249
11 2002  k1103    Stavanger     k1108    Sandnes           8826
12 2002  k1103    Stavanger     k1135    Sauda               65
13 2002  k1103    Stavanger     k1124    Sola              3774
14 2002  k1103    Stavanger     k1103    Stavanger        43142
15 2002  k1103    Stavanger     k1130    Strand             957
16 2002  k1103    Stavanger     k1134    Suldal              97
17 2002  k1103    Stavanger     k4612    Sveio               41
18 2002  k1103    Stavanger     k1121    Time              1049
19 2002  k1103    Stavanger     k1146    Tysvær             109
20 2002  k1103    Stavanger     k1160    Vindafjord          73
21 2003  k1103    Stavanger     k1145    Bokn                11
22 2003  k1103    Stavanger     k4611    Etne                33
# ℹ 438 more rows
…
names(pend_02_24)

[1] "aar"       "akom"      "akom_navn" "bkom"      "bkom_navn" "pendlere" 

Kode

dim(pend_02_24)

[1] 10120     6

Kode

print(pend_02_24, n = 5)

# A tibble: 10,120 × 6
  aar   akom  akom_navn bkom  bkom_navn pendlere
  <chr> <chr> <chr>     <chr> <chr>        <int>
1 2002  k1103 Stavanger k1103 Stavanger    43142
2 2002  k1103 Stavanger k1106 Haugesund      347
3 2002  k1103 Stavanger k1108 Sandnes       8826
4 2002  k1103 Stavanger k1119 Hå             637
5 2002  k1103 Stavanger k1120 Klepp         1187
# ℹ 10,115 more rows
…
Kode

dim(tot_arb_HL)

[1] 23  2

Kode

print(tot_arb_HL, n = 10)

# A tibble: 23 × 2
   aar   arbtak_HL
   <chr>     <int>
 1 2002    2267000
 2 2003    2260000
 3 2004    2274000
 4 2005    2308000
 5 2006    2389000
 6 2007    2484000
 7 2008    2525000
 8 2009    2497000
 9 2010    2517000
10 2011    2562000
# ℹ 13 more rows
…
Kode

dim(bBFjHL)

[1] 23  2

Kode

print(bBFjHL, n = 5)

# A tibble: 23 × 2
  aar   bBFjHL
  <chr>  <int>
1 2002  184466
2 2003  184828
3 2004  187796
4 2005  193779
5 2006  204477
# ℹ 18 more rows
…
Kode

dim(bRALjBF)

[1] 23  2

Kode

print(bRALjBF, n = 5)

# A tibble: 23 × 2
  aar   bRALjBF
  <chr>   <int>
1 2002    10516
2 2003     9332
3 2004     9438
4 2005     9636
5 2006    12295
# ℹ 18 more rows
…
Kode

dim(tot_arb_HL)

[1] 23  5

Kode

print(tot_arb_HL, n = 10)

# A tibble: 23 × 5
   aar   arbtak_HL bBFjHL bRALjBF bRALjRAL
   <chr>     <int>  <int>   <int>    <int>
 1 2002    2267000 184466   10516  2072018
 2 2003    2260000 184828    9332  2065840
 3 2004    2274000 187796    9438  2076766
 4 2005    2308000 193779    9636  2104585
 5 2006    2389000 204477   12295  2172228
 6 2007    2484000 215370   13660  2254970
 7 2008    2525000 221464   13926  2289610
 8 2009    2497000 220540   13485  2262975
 9 2010    2517000 224026   13927  2279047
10 2011    2562000 230410   15444  2316146
# ℹ 13 more rows
…
Kode

dim(total)

[1] 23  6

Kode

print(total, n = 5)

# A tibble: 23 × 6
  aar   akom  akom_navn bkom  bkom_navn pendlere
  <chr> <chr> <chr>     <chr> <chr>        <int>
1 2002  k0000 TotaltBo  k0000 TotaltArb  2267000
2 2003  k0000 TotaltBo  k0000 TotaltArb  2260000
3 2004  k0000 TotaltBo  k0000 TotaltArb  2274000
4 2005  k0000 TotaltBo  k0000 TotaltArb  2308000
5 2006  k0000 TotaltBo  k0000 TotaltArb  2389000
# ℹ 18 more rows
…
Kode

dim(p_bRALjRAL)

[1] 23  6

Kode

print(p_bRALjRAL, n = 5)

# A tibble: 23 × 6
  aar   akom  akom_navn bkom  bkom_navn pendlere
  <chr> <chr> <chr>     <chr> <chr>        <int>
1 2002  k9999 RAL       k9999 RAL        2072018
2 2003  k9999 RAL       k9999 RAL        2065840
3 2004  k9999 RAL       k9999 RAL        2076766
4 2005  k9999 RAL       k9999 RAL        2104585
5 2006  k9999 RAL       k9999 RAL        2172228
# ℹ 18 more rows
…
Kode

pendlematrise_2010

# A tibble: 21 × 22
   bkom  k1103 k1106 k1108 k1119 k1120 k1121 k1122 k1124 k1127 k1130 k1133 k1134
   <chr> <int> <int> <int> <int> <int> <int> <int> <int> <int> <int> <int> <int>
 1 k1103 50038   119  7707   126   411   283   165  5846  1463   100    92    40
 2 k1106   352 12034   111     5     2     3     0    65    12     4     4    30
 3 k1108 10577    42 17650   303   962   569   492  2920   209   158    23    17
 4 k1119   677     6   696  5446   566  1021    58   323    16     4     2     2
 5 k1120  1499     6  1711   374  3464  1144    82   759    36    10     3     3
 6 k1121  1357     9  1316   587  1095  3724   134   458    18     4     4     0
 7 k1122   990     3  1478    94   211   176  2252   347    23    10     0     2
 8 k1124  4454    20  1860    37   200    92    31  4866   173    12     4    11
 9 k1127  2366    14   431     7    24     8     9   489  1626     8     5     2
10 k1130   963    14   344     8    12     8     3   117    16  3839   129    10
# ℹ 11 more rows
# ℹ 9 more variables: k1135 <int>, k1144 <int>, k1145 <int>, k1146 <int>,
#   k1149 <int>, k1160 <int>, k4611 <int>, k4612 <int>, k9999 <int>
…
Kode

dim(pendle_data_02_24)

[1] 11132     6

Kode

print(pendle_data_02_24, n = 5)

# A tibble: 11,132 × 6
  aar   akom  akom_navn bkom  bkom_navn pendlere
  <chr> <chr> <chr>     <chr> <chr>        <int>
1 2002  k1103 Stavanger k1103 Stavanger    43142
2 2002  k1103 Stavanger k1106 Haugesund      347
3 2002  k1103 Stavanger k1108 Sandnes       8826
4 2002  k1103 Stavanger k1119 Hå             637
5 2002  k1103 Stavanger k1120 Klepp         1187
# ℹ 11,127 more rows
…
dim(pendle_data_02_24)

[1] 11132     6

Kode

names(pendle_data_02_24)

[1] "aar"       "akom"      "akom_navn" "bkom"      "bkom_navn" "pendlere" 

Kode

print(pendle_data_02_24, n = 5)

# A tibble: 11,132 × 6
  aar   akom  akom_navn bkom  bkom_navn pendlere
  <chr> <chr> <chr>     <chr> <chr>        <int>
1 2002  k1103 Stavanger k1103 Stavanger    43142
2 2002  k1103 Stavanger k1106 Haugesund      347
3 2002  k1103 Stavanger k1108 Sandnes       8826
4 2002  k1103 Stavanger k1119 Hå             637
5 2002  k1103 Stavanger k1120 Klepp         1187
# ℹ 11,127 more rows
…
dim(andel_pendle_data_02_24_long)

[1] 11132     6

Kode

names(andel_pendle_data_02_24_long)

[1] "aar"       "akom"      "akom_navn" "bkom"      "bkom_navn" "andel"    

Kode

print(andel_pendle_data_02_24_long, n = 8, width = 70)

# A tibble: 11,132 × 6
  aar        akom  akom_navn bkom  bkom_navn  andel
  <date>     <chr> <chr>     <chr> <chr>      <dbl>
1 2002-01-01 k1103 Stavanger k1103 Stavanger 73.1  
2 2002-01-01 k1106 Haugesund k1103 Stavanger  0.203
3 2002-01-01 k1108 Sandnes   k1103 Stavanger  7.98 
4 2002-01-01 k1119 Hå        k1103 Stavanger  0.154
5 2002-01-01 k1120 Klepp     k1103 Stavanger  0.332
6 2002-01-01 k1121 Time      k1103 Stavanger  0.373
7 2002-01-01 k1122 Gjesdal   k1103 Stavanger  0.144
8 2002-01-01 k1124 Sola      k1103 Stavanger  7.24 
# ℹ 11,124 more rows
…
